<?xml version="1.0" standalone="no"?>
<!DOCTYPE svg PUBLIC "-//W3C//DTD SVG 20010904//EN"
 "http://www.w3.org/TR/2001/REC-SVG-20010904/DTD/svg10.dtd">
<svg version="1.0" xmlns="http://www.w3.org/2000/svg"
 width="512.000000pt" height="512.000000pt" viewBox="0 0 512.000000 512.000000"
 preserveAspectRatio="xMidYMid meet">
<metadata>
Created by potrace 1.11, written by Peter Selinger 2001-2013
</metadata>
<g transform="translate(0.000000,512.000000) scale(0.100000,-0.100000)"
fill="#000000" stroke="none">
<path d="M1081 3990 c-46 -11 -100 -67 -111 -116 -5 -21 -10 -74 -10 -116 l0
-78 -397 0 c-219 0 -416 -5 -437 -10 -50 -11 -105 -65 -116 -113 -18 -82 36
-169 116 -187 21 -5 218 -10 437 -10 l397 0 0 -160 0 -160 -237 0 c-131 0
-256 -5 -277 -10 -50 -11 -105 -65 -116 -113 -18 -82 36 -169 116 -187 21 -5
146 -10 277 -10 l237 0 0 -160 0 -160 -77 0 c-107 -1 -150 -12 -190 -53 -62
-61 -62 -153 0 -214 40 -40 83 -52 189 -53 l77 0 3 -269 c3 -254 4 -271 24
-297 11 -15 33 -37 48 -48 26 -20 43 -21 311 -24 l283 -3 28 -57 c61 -126 204
-229 352 -253 195 -32 411 78 496 254 l28 57 668 0 668 0 28 -57 c85 -176 301
-286 496 -254 148 24 291 127 352 253 l28 56 123 4 c134 3 153 10 199 72 21
27 21 38 21 484 l0 457 -249 415 c-137 228 -258 426 -270 439 -45 51 -49 51
-581 51 l-495 0 0 238 c0 130 -5 255 -10 276 -11 51 -65 105 -116 116 -48 12
-2265 11 -2313 0z m3495 -1262 c103 -172 189 -316 191 -320 2 -5 -205 -8 -461
-8 l-466 0 0 320 0 320 274 0 275 0 187 -312z m-2415 -991 c106 -71 106 -203
0 -274 -98 -66 -241 15 -241 137 0 87 73 160 160 160 32 0 58 -7 81 -23z
m2240 0 c52 -35 79 -82 79 -137 0 -32 -7 -58 -23 -81 -71 -106 -203 -106 -274
0 -66 98 15 241 137 241 32 0 58 -7 81 -23z"/>
</g>
</svg>
